{
    "key": "group_5d119d9f26adf",
    "title": "Side by Side CTA Block",
    "fields": [
        {
            "key": "field_5d119db0d675f",
            "label": "CTA 1 Title Text",
            "name": "cta_1_title_text",
            "type": "text",
            "instructions": "",
            "required": 0,
            "conditional_logic": 0,
            "wrapper": {
                "width": "",
                "class": "",
                "id": ""
            },
            "default_value": "",
            "placeholder": "",
            "prepend": "",
            "append": "",
            "maxlength": ""
        },
        {
            "key": "field_5d119ddad6761",
            "label": "CTA 1 Button",
            "name": "cta_1_button",
            "type": "link",
            "instructions": "Use the field in the popup to set the button text.",
            "required": 0,
            "conditional_logic": 0,
            "wrapper": {
                "width": "",
                "class": "",
                "id": ""
            },
            "return_format": "array"
        },
        {
            "key": "field_5d119e09d6762",
            "label": "CTA 2 Title Text",
            "name": "cta_2_title_text",
            "type": "text",
            "instructions": "",
            "required": 0,
            "conditional_logic": 0,
            "wrapper": {
                "width": "",
                "class": "",
                "id": ""
            },
            "default_value": "",
            "placeholder": "",
            "prepend": "",
            "append": "",
            "maxlength": ""
        },
        {
            "key": "field_5d119e16d6763",
            "label": "CTA 2 Button",
            "name": "cta_2_button",
            "type": "link",
            "instructions": "Use the field in the popup to set the button text.",
            "required": 0,
            "conditional_logic": 0,
            "wrapper": {
                "width": "",
                "class": "",
                "id": ""
            },
            "return_format": "array"
        }
    ],
    "location": [
        [
            {
                "param": "block",
                "operator": "==",
                "value": "acf\/sidebyside-ctas"
            }
        ]
    ],
    "menu_order": 0,
    "position": "normal",
    "style": "default",
    "label_placement": "top",
    "instruction_placement": "label",
    "hide_on_screen": "",
    "active": 1,
    "description": "",
    "modified": 1561436119
}