{
    "key": "group_5d1cb5ebcf853",
    "title": "Career Benefits Block",
    "fields": [
        {
            "key": "field_5d1cb5fa86439",
            "label": "Benefits",
            "name": "benefits",
            "type": "repeater",
            "instructions": "",
            "required": 0,
            "conditional_logic": 0,
            "wrapper": {
                "width": "",
                "class": "",
                "id": ""
            },
            "collapsed": "",
            "min": 0,
            "max": 0,
            "layout": "block",
            "button_label": "Add Benefit",
            "sub_fields": [
                {
                    "key": "field_5d1cb6078643a",
                    "label": "Benefit Name",
                    "name": "name",
                    "type": "text",
                    "instructions": "",
                    "required": 1,
                    "conditional_logic": 0,
                    "wrapper": {
                        "width": "",
                        "class": "",
                        "id": ""
                    },
                    "default_value": "",
                    "placeholder": "",
                    "prepend": "",
                    "append": "",
                    "maxlength": ""
                },
                {
                    "key": "field_5d1cb6378643b",
                    "label": "Benefit Description",
                    "name": "description",
                    "type": "textarea",
                    "instructions": "A short description. Line breaks are NOT preserved.",
                    "required": 1,
                    "conditional_logic": 0,
                    "wrapper": {
                        "width": "",
                        "class": "",
                        "id": ""
                    },
                    "default_value": "",
                    "placeholder": "",
                    "maxlength": "",
                    "rows": 4,
                    "new_lines": ""
                }
            ]
        },
        {
            "key": "field_5d1cb6778643c",
            "label": "More Benefits",
            "name": "more_benefits",
            "type": "link",
            "instructions": "Link to view all\/more benefits. Link text in popup is ignored.",
            "required": 1,
            "conditional_logic": 0,
            "wrapper": {
                "width": "",
                "class": "",
                "id": ""
            },
            "return_format": "array"
        }
    ],
    "location": [
        [
            {
                "param": "block",
                "operator": "==",
                "value": "acf\/career-benefits"
            }
        ]
    ],
    "menu_order": 0,
    "position": "normal",
    "style": "default",
    "label_placement": "top",
    "instruction_placement": "label",
    "hide_on_screen": "",
    "active": 1,
    "description": "",
    "modified": 1562166293
}