<?xml version="1.0" encoding="UTF-8"?>
<svg width="20px" height="24px" viewBox="0 0 20 24" version="1.1" xmlns="http://www.w3.org/2000/svg" xmlns:xlink="http://www.w3.org/1999/xlink">
    <!-- Generator: Sketch 55 (78076) - https://sketchapp.com -->
    <g id="Page-Designs" stroke="none" stroke-width="1" fill="none" fill-rule="evenodd">
        <g id="Tertiary/Specific-Audit" transform="translate(-136.000000, -633.000000)" fill="#595959" fill-rule="nonzero">
            <g id="iconmonstr-book-2" transform="translate(136.000000, 633.000000)">
                <path d="M3.495,2 L20,2 L20,0 L3,0 C1.343,0 0,1.343 0,3 L0,21 C0,22.657 1.343,24 3,24 L20,24 L20,4 L3.495,4 C2.12,4 2.12,2 3.495,2 Z M4,6 L18,6 L18,22 L4,22 L4,6 Z" id="Shape"></path>
            </g>
        </g>
    </g>
</svg>